{
    "/js/bootstrap.js": "/js/bootstrap.js",
    "/css/app.css": "/css/app.css",
    "/js/bootstrap.js.map": "/js/bootstrap.js.map",
    "/css/app.css.map": "/css/app.css.map",
    "/js/vendor.js": "/js/vendor.js",
    "/js/vendor.js.map": "/js/vendor.js.map",
    "/js/map.js": "/js/map.js",
    "/js/map.js.map": "/js/map.js.map",
    "/js/app.js": "/js/app.js",
    "/js/app.js.map": "/js/app.js.map",
    "/js/manifest.js": "/js/manifest.js",
    "/js/manifest.js.map": "/js/manifest.js.map"
}